{
	"info": {
		"_postman_id": "d9cdca2c-a293-4514-b0e4-524db8c725f4",
		"name": "CrediBanco",
		"schema": "https://schema.getpostman.com/json/collection/v2.1.0/collection.json"
	},
	"item": [
		{
			"name": "Books",
			"item": [
				{
					"name": "/api/books/create",
					"request": {
						"method": "POST",
						"header": [],
						"body": {
							"mode": "raw",
							"raw": " {\r\n        \"titulo\": \"Primer Insert\",\r\n        \"anio\": 20,\r\n        \"genero\": \"Drama\",\r\n        \"numPages\": 300,\r\n        \"editorial\": 1,\r\n        \"autor\": 1\r\n    }",
							"options": {
								"raw": {
									"language": "json"
								}
							}
						},
						"url": {
							"raw": "http://localhost:7000/api/books/create",
							"protocol": "http",
							"host": [
								"localhost"
							],
							"port": "7000",
							"path": [
								"api",
								"books",
								"create"
							]
						}
					},
					"response": []
				},
				{
					"name": "/api/books/update",
					"request": {
						"method": "PUT",
						"header": [],
						"body": {
							"mode": "raw",
							"raw": " {\r\n        \"id\": 1203,\r\n        \"titulo\": \"1203 Insert\",\r\n        \"anio\": \"20\",\r\n        \"genero\": \"Drama\",\r\n        \"numPages\": 300,\r\n        \"editorial\": 1\r\n    }",
							"options": {
								"raw": {
									"language": "json"
								}
							}
						},
						"url": {
							"raw": "http://localhost:7000/api/books/update",
							"protocol": "http",
							"host": [
								"localhost"
							],
							"port": "7000",
							"path": [
								"api",
								"books",
								"update"
							]
						}
					},
					"response": []
				},
				{
					"name": "/api/books/get/all",
					"protocolProfileBehavior": {
						"disableBodyPruning": true
					},
					"request": {
						"method": "GET",
						"header": [],
						"body": {
							"mode": "raw",
							"raw": "{\r\n    \"nombre\" : \"Cristtian\",\r\n    \"apellido\": \"Mejia\",\r\n    \"direccion\": \"Cslle falsa 123\",\r\n    \"telefono\": \"23234324\"\r\n}",
							"options": {
								"raw": {
									"language": "json"
								}
							}
						},
						"url": {
							"raw": "http://localhost:7000/api/books/get/all",
							"protocol": "http",
							"host": [
								"localhost"
							],
							"port": "7000",
							"path": [
								"api",
								"books",
								"get",
								"all"
							]
						}
					},
					"response": []
				},
				{
					"name": "/api/books/get/{id}",
					"protocolProfileBehavior": {
						"disableBodyPruning": true
					},
					"request": {
						"method": "GET",
						"header": [],
						"body": {
							"mode": "raw",
							"raw": "{\r\n    \"nombre\" : \"Cristtian\",\r\n    \"apellido\": \"Mejia\",\r\n    \"direccion\": \"Cslle falsa 123\",\r\n    \"telefono\": \"23234324\"\r\n}",
							"options": {
								"raw": {
									"language": "json"
								}
							}
						},
						"url": {
							"raw": "http://localhost:7000/api/books/get/1",
							"protocol": "http",
							"host": [
								"localhost"
							],
							"port": "7000",
							"path": [
								"api",
								"books",
								"get",
								"1"
							]
						}
					},
					"response": []
				},
				{
					"name": "/api/books/delete/{id}",
					"request": {
						"method": "DELETE",
						"header": [],
						"url": {
							"raw": "http://localhost:7000/api/books/delete/1252",
							"protocol": "http",
							"host": [
								"localhost"
							],
							"port": "7000",
							"path": [
								"api",
								"books",
								"delete",
								"1252"
							]
						}
					},
					"response": []
				}
			]
		},
		{
			"name": "Authors",
			"item": [
				{
					"name": "/api/authors/create",
					"request": {
						"method": "POST",
						"header": [],
						"body": {
							"mode": "raw",
							"raw": " {\r\n        \"nombreCompleto\": \"Nombre Completo\",\r\n        \"fechaNac\": \"2000-04-04\",\r\n        \"ciudadProcedencia\": \"Cali\",\r\n        \"email\": \"email.contacto@sisoy.com\"\r\n    }",
							"options": {
								"raw": {
									"language": "json"
								}
							}
						},
						"url": {
							"raw": "http://localhost:7000/api/authors/create",
							"protocol": "http",
							"host": [
								"localhost"
							],
							"port": "7000",
							"path": [
								"api",
								"authors",
								"create"
							]
						}
					},
					"response": []
				},
				{
					"name": "/api/authors/update",
					"request": {
						"method": "PUT",
						"header": [],
						"body": {
							"mode": "raw",
							"raw": " {\r\n        \"id\": 1,\r\n        \"titulo\": \"Segundo Insert\",\r\n        \"anio\": \"20\",\r\n        \"genero\": \"Drama\",\r\n        \"num_pages\": 300,\r\n        \"editorial\": 1\r\n    }",
							"options": {
								"raw": {
									"language": "json"
								}
							}
						},
						"url": {
							"raw": "http://localhost:7000/api/authors/update",
							"protocol": "http",
							"host": [
								"localhost"
							],
							"port": "7000",
							"path": [
								"api",
								"authors",
								"update"
							]
						}
					},
					"response": []
				},
				{
					"name": "/api/authors/get/all",
					"protocolProfileBehavior": {
						"disableBodyPruning": true
					},
					"request": {
						"method": "GET",
						"header": [],
						"body": {
							"mode": "raw",
							"raw": "{\r\n    \"nombre\" : \"Cristtian\",\r\n    \"apellido\": \"Mejia\",\r\n    \"direccion\": \"Cslle falsa 123\",\r\n    \"telefono\": \"23234324\"\r\n}",
							"options": {
								"raw": {
									"language": "json"
								}
							}
						},
						"url": {
							"raw": "http://localhost:7000/api/authors/get/all",
							"protocol": "http",
							"host": [
								"localhost"
							],
							"port": "7000",
							"path": [
								"api",
								"authors",
								"get",
								"all"
							]
						}
					},
					"response": []
				},
				{
					"name": "/api/authors/get/{id}",
					"protocolProfileBehavior": {
						"disableBodyPruning": true
					},
					"request": {
						"method": "GET",
						"header": [],
						"body": {
							"mode": "raw",
							"raw": "{\r\n    \"nombre\" : \"Cristtian\",\r\n    \"apellido\": \"Mejia\",\r\n    \"direccion\": \"Cslle falsa 123\",\r\n    \"telefono\": \"23234324\"\r\n}",
							"options": {
								"raw": {
									"language": "json"
								}
							}
						},
						"url": {
							"raw": "http://localhost:7000/api/authors/get/1",
							"protocol": "http",
							"host": [
								"localhost"
							],
							"port": "7000",
							"path": [
								"api",
								"authors",
								"get",
								"1"
							]
						}
					},
					"response": []
				},
				{
					"name": "/api/authors/delete/{id}",
					"request": {
						"method": "DELETE",
						"header": [],
						"url": {
							"raw": "http://localhost:7000/api/authors/delete/1252",
							"protocol": "http",
							"host": [
								"localhost"
							],
							"port": "7000",
							"path": [
								"api",
								"authors",
								"delete",
								"1252"
							]
						}
					},
					"response": []
				}
			]
		},
		{
			"name": "Editorials",
			"item": [
				{
					"name": "/api/editorials/create",
					"request": {
						"method": "POST",
						"header": [],
						"body": {
							"mode": "raw",
							"raw": " {\r\n        \"nombre\": \"Renaldo\",\r\n        \"direccionCpda\": \"Calle Falsa 1123\",\r\n        \"telefono\": 8522,\r\n        \"email\": \"email@prueba.com\",\r\n        \"maxBooks\": 10\r\n    }",
							"options": {
								"raw": {
									"language": "json"
								}
							}
						},
						"url": {
							"raw": "http://localhost:7000/api/editorials/create",
							"protocol": "http",
							"host": [
								"localhost"
							],
							"port": "7000",
							"path": [
								"api",
								"editorials",
								"create"
							]
						}
					},
					"response": []
				},
				{
					"name": "/api/editorials/update",
					"request": {
						"method": "PUT",
						"header": [],
						"body": {
							"mode": "raw",
							"raw": " {\r\n        \"id\": 1,\r\n        \"titulo\": \"Segundo Insert\",\r\n        \"anio\": \"20\",\r\n        \"genero\": \"Drama\",\r\n        \"num_pages\": 300,\r\n        \"editorial\": 1\r\n    }",
							"options": {
								"raw": {
									"language": "json"
								}
							}
						},
						"url": {
							"raw": "http://localhost:7000/api/editorials/update",
							"protocol": "http",
							"host": [
								"localhost"
							],
							"port": "7000",
							"path": [
								"api",
								"editorials",
								"update"
							]
						}
					},
					"response": []
				},
				{
					"name": "/api/editorials/get/all",
					"protocolProfileBehavior": {
						"disableBodyPruning": true
					},
					"request": {
						"method": "GET",
						"header": [],
						"body": {
							"mode": "raw",
							"raw": "{\r\n    \"nombre\" : \"Cristtian\",\r\n    \"apellido\": \"Mejia\",\r\n    \"direccion\": \"Cslle falsa 123\",\r\n    \"telefono\": \"23234324\"\r\n}",
							"options": {
								"raw": {
									"language": "json"
								}
							}
						},
						"url": {
							"raw": "http://localhost:7000/api/editorials/get/all",
							"protocol": "http",
							"host": [
								"localhost"
							],
							"port": "7000",
							"path": [
								"api",
								"editorials",
								"get",
								"all"
							]
						}
					},
					"response": []
				},
				{
					"name": "/api/editorials/get/{id}",
					"protocolProfileBehavior": {
						"disableBodyPruning": true
					},
					"request": {
						"method": "GET",
						"header": [],
						"body": {
							"mode": "raw",
							"raw": "{\r\n    \"nombre\" : \"Cristtian\",\r\n    \"apellido\": \"Mejia\",\r\n    \"direccion\": \"Cslle falsa 123\",\r\n    \"telefono\": \"23234324\"\r\n}",
							"options": {
								"raw": {
									"language": "json"
								}
							}
						},
						"url": {
							"raw": "http://localhost:7000/api/editorials/get/1",
							"protocol": "http",
							"host": [
								"localhost"
							],
							"port": "7000",
							"path": [
								"api",
								"editorials",
								"get",
								"1"
							]
						}
					},
					"response": []
				},
				{
					"name": "/api/editorials/delete/{id}",
					"request": {
						"method": "DELETE",
						"header": [],
						"url": {
							"raw": "http://localhost:7000/api/editorials/delete/1252",
							"protocol": "http",
							"host": [
								"localhost"
							],
							"port": "7000",
							"path": [
								"api",
								"editorials",
								"delete",
								"1252"
							]
						}
					},
					"response": []
				}
			]
		},
		{
			"name": "/actuator/",
			"protocolProfileBehavior": {
				"disableBodyPruning": true
			},
			"request": {
				"method": "GET",
				"header": [],
				"body": {
					"mode": "raw",
					"raw": " {\r\n        \"titulo\": \"Segundo Insert\",\r\n        \"anio\": \"20\",\r\n        \"genero\": \"Drama\",\r\n        \"num_pages\": 300,\r\n        \"editorial\": 1\r\n    }",
					"options": {
						"raw": {
							"language": "json"
						}
					}
				},
				"url": {
					"raw": "http://localhost:7000/actuator/",
					"protocol": "http",
					"host": [
						"localhost"
					],
					"port": "7000",
					"path": [
						"actuator",
						""
					]
				}
			},
			"response": []
		}
	]
}